Biostat 203B Homework 5
…
Computational engine: glmnet 

Tuning grid

param_grid_lr <- grid_regular(
  penalty(range = c(-6, 3)),
  mixture(),
  levels = c(100, 5)
)
param_grid_lr

# A tibble: 500 × 2
      penalty mixture
        <dbl>   <dbl>
 1 0.000001         0
 2 0.00000123       0
 3 0.00000152       0
 4 0.00000187       0
 5 0.00000231       0
 6 0.00000285       0
 7 0.00000351       0
 8 0.00000433       0
 9 0.00000534       0
10 0.00000658       0
# ℹ 490 more rows
…
Visualize CV results

enet_fit |>
  # aggregate metrics from K folds
  collect_metrics() |>
  print(width = Inf) |>
  filter(.metric == "roc_auc") |>
  ggplot(mapping = aes(x = penalty, y = mean, color = factor(mixture))) +
  geom_point() +
  labs(x = "Penalty", y = "CV AUC") +
  scale_x_log10()

# A tibble: 1,000 × 8
      penalty mixture .metric  .estimator  mean     n std_err
        <dbl>   <dbl> <chr>    <chr>      <dbl> <int>   <dbl>
 1 0.000001         0 accuracy binary     0.576     5 0.00215
 2 0.000001         0 roc_auc  binary     0.608     5 0.00159
 3 0.00000123       0 accuracy binary     0.576     5 0.00215
 4 0.00000123       0 roc_auc  binary     0.608     5 0.00159
 5 0.00000152       0 accuracy binary     0.576     5 0.00215
 6 0.00000152       0 roc_auc  binary     0.608     5 0.00159
 7 0.00000187       0 accuracy binary     0.576     5 0.00215
 8 0.00000187       0 roc_auc  binary     0.608     5 0.00159
 9 0.00000231       0 accuracy binary     0.576     5 0.00215
10 0.00000231       0 roc_auc  binary     0.608     5 0.00159
   .config               
   <chr>                 
 1 Preprocessor1_Model001
 2 Preprocessor1_Model001
 3 Preprocessor1_Model002
 4 Preprocessor1_Model002
 5 Preprocessor1_Model003
 6 Preprocessor1_Model003
 7 Preprocessor1_Model004
 8 Preprocessor1_Model004
 9 Preprocessor1_Model005
10 Preprocessor1_Model005
# ℹ 990 more rows
…
Visualize CV results

rf_fit %>%
  collect_metrics() %>%
  print(width = Inf) %>%
  filter(.metric == "roc_auc") %>%
  mutate(mtry = as.factor(mtry)) %>%
  ggplot(mapping = aes(x = trees, y = mean, color = mtry)) +
  # geom_point() +
  geom_line() +
  labs(x = "Num. of Trees", y = "CV AUC")

# A tibble: 30 × 8
    mtry trees .metric  .estimator  mean     n std_err .config              
   <int> <int> <chr>    <chr>      <dbl> <int>   <dbl> <chr>                
 1     2   500 accuracy binary     0.602     5 0.00246 Preprocessor1_Model01
 2     2   500 roc_auc  binary     0.642     5 0.00196 Preprocessor1_Model01
 3     2   600 accuracy binary     0.603     5 0.00161 Preprocessor1_Model02
 4     2   600 roc_auc  binary     0.643     5 0.00180 Preprocessor1_Model02
 5     2   700 accuracy binary     0.603     5 0.00147 Preprocessor1_Model03
 6     2   700 roc_auc  binary     0.644     5 0.00160 Preprocessor1_Model03
 7     3   500 accuracy binary     0.604     5 0.00179 Preprocessor1_Model04
 8     3   500 roc_auc  binary     0.644     5 0.00130 Preprocessor1_Model04
 9     3   600 accuracy binary     0.602     5 0.00227 Preprocessor1_Model05
10     3   600 roc_auc  binary     0.645     5 0.00182 Preprocessor1_Model05
# ℹ 20 more rows
…
Computational engine: xgboost 

Tuning grid

param_grid_gb <- grid_regular(
  tree_depth(range = c(1L, 3L)),
  learn_rate(range = c(-5, 2), trans = log10_trans()),
  levels = c(3, 10)
)
param_grid_gb

# A tibble: 30 × 2
   tree_depth learn_rate
        <int>      <dbl>
 1          1  0.00001  
 2          2  0.00001  
 3          3  0.00001  
 4          1  0.0000599
 5          2  0.0000599
 6          3  0.0000599
 7          1  0.000359 
 8          2  0.000359 
 9          3  0.000359 
10          1  0.00215  
# ℹ 20 more rows
…
  collect_metrics() %>%
  print(width = Inf) %>%
  filter(.metric == "roc_auc") %>%
  mutate(tree_depth = as.factor(tree_depth)) %>%
  ggplot(mapping = aes(
    x = learn_rate,
    y = mean,
    color = tree_depth
  )) +
  geom_point() +
  geom_line() +
  labs(x = "Learning Rate", y = "CV AUC") +
  scale_x_log10()

# A tibble: 60 × 8
   tree_depth learn_rate .metric  .estimator  mean     n std_err
        <int>      <dbl> <chr>    <chr>      <dbl> <int>   <dbl>
 1          1  0.00001   accuracy binary     0.547     5 0.00246
 2          1  0.00001   roc_auc  binary     0.536     5 0.00104
 3          2  0.00001   accuracy binary     0.554     5 0.00220
 4          2  0.00001   roc_auc  binary     0.555     5 0.00346
 5          3  0.00001   accuracy binary     0.554     5 0.00188
 6          3  0.00001   roc_auc  binary     0.571     5 0.00117
 7          1  0.0000599 accuracy binary     0.547     5 0.00246
 8          1  0.0000599 roc_auc  binary     0.544     5 0.00580
 9          2  0.0000599 accuracy binary     0.555     5 0.00199
10          2  0.0000599 roc_auc  binary     0.558     5 0.00518
   .config              
   <chr>                
 1 Preprocessor1_Model01
 2 Preprocessor1_Model01
 3 Preprocessor1_Model02
 4 Preprocessor1_Model02
 5 Preprocessor1_Model03
 6 Preprocessor1_Model03
 7 Preprocessor1_Model04
 8 Preprocessor1_Model04
 9 Preprocessor1_Model05
10 Preprocessor1_Model05
# ℹ 50 more rows
…
